{
  "count": 66,
  "next": "https://api.ezpaypin.com/vendors/v2/orders/?end_date=2021-09-19&limit=4&offset=1&start_date=2021-09-01",
  "previous": null,
  "results": [
    {
      "order_id": 156609,
      "delivery_type": 2,
      "destination": "18885051234",
      "status": 1,
      "status_text": "accept",
      "created_time": "2021-09-09T06:28:55.467051",
      "terminal_id": null,
      "reference_code": "3d497a5e-64bd-4b95-a5db-61f42b6c70d5",
      "product": {
        "sku": 21,
        "title": "Test Amazon"
      },
      "count": 1,
      "total_face_value": 10.0,
      "total_fees": 0,
      "total_discounts": 0.1,
      "total_customer_cost": 10.1,
      "is_completed": true,
      "share_link": "https://vc.ezpaypin.com/01c79b97-8ab4-423c-a11d-225897f2135b"
    },
    {
      "order_id": 156610,
      "delivery_type": 1,
      "destination": "example@example.com",
      "status": 0,
      "status_text": "pending",
      "created_time": "2021-09-09T09:08:23.167070",
      "terminal_id": null,
      "reference_code": "88813f11-5ba2-4ea2-b34a-e2ea4998892c",
      "product": {
        "sku": 1159,
        "title": "Amazon DE"
      },
      "count": 1,
      "total_face_value": 10.0,
      "total_fees": 3.09,
      "total_discounts": 0,
      "total_customer_cost": 13.09,
      "is_completed": false,
      "share_link": "https://vc.ezpaypin.com/01c79b97-8ab4-423c-a11d-225897f2123f"
    },
    {
      "order_id": 156613,
      "delivery_type": 1,
      "destination": "example@example.com",
      "status": 1,
      "status_text": "accept",
      "created_time": "2021-09-09T10:49:08.501976",
      "terminal_id": null,
      "reference_code": "8f1453f0-96cd-4dbf-89c4-cb44b293241d",
      "product": {
        "sku": 1148,
        "title": "App Store & iTunes US"
      },
      "count": 1,
      "total_face_value": 3.0,
      "total_fees": 0,
      "total_discounts": -0.06,
      "total_customer_cost": 2.94,
      "is_completed": true,
      "share_link": "https://vc.ezpaypin.com/01c79b97-8ab4-423c-a11d-225897f2110d"
    },
    {
      "order_id": 156614,
      "delivery_type": 0,
      "destination": null,
      "status": 1,
      "status_text": "accept",
      "created_time": "2021-09-09T11:09:37.059887",
      "terminal_id": null,
      "reference_code": "7956fd9a-b2ee-4dfa-a1b2-e7224c2516a0",
      "product": {
        "sku": 1148,
        "title": "App Store & iTunes US"
      },
      "count": 1,
      "total_face_value": 3.0,
      "total_fees": 0,
      "total_discounts": -0.06,
      "total_customer_cost": 2.94,
      "is_completed": true,
      "share_link": "https://vc.ezpaypin.com/01c79b97-8ab4-423c-a11d-225897f2129e"
    }
  ]
}